          1          1          1          1
          2          4          3          5
          3          9          6         14
          4         16         10         30
          5         25         15         55
          6         36         21         91
          7         49         28        140
          8         64         36        204
          9         81         45        285
         10        100         55        385
         11        121         66        506
         12        144         78        650
         13        169         91        819
         14        196        105       1015
         15        225        120       1240
         16        256        136       1496
         17        289        153       1785
         18        324        171       2109
         19        361        190       2470
         20        400        210       2870
         21        441        231       3311
         22        484        253       3795
         23        529        276       4324
         24        576        300       4900
         25        625        325       5525
         26        676        351       6201
         27        729        378       6930
         28        784        406       7714
         29        841        435       8555
         30        900        465       9455
         31        961        496      10416
         32       1024        528      11440
         33       1089        561      12529
         34       1156        595      13685
         35       1225        630      14910
         36       1296        666      16206
         37       1369        703      17575
         38       1444        741      19019
         39       1521        780      20540
         40       1600        820      22140
         41       1681        861      23821
         42       1764        903      25585
         43       1849        946      27434
         44       1936        990      29370
         45       2025       1035      31395
         46       2116       1081      33511
         47       2209       1128      35720
         48       2304       1176      38024
         49       2401       1225      40425
         50       2500       1275      42925
         51       2601       1326      45526
         52       2704       1378      48230
         53       2809       1431      51039
         54       2916       1485      53955
         55       3025       1540      56980
         56       3136       1596      60116
         57       3249       1653      63365
         58       3364       1711      66729
         59       3481       1770      70210
         60       3600       1830      73810
         61       3721       1891      77531
         62       3844       1953      81375
         63       3969       2016      85344
         64       4096       2080      89440
         65       4225       2145      93665
         66       4356       2211      98021
         67       4489       2278     102510
         68       4624       2346     107134
         69       4761       2415     111895
         70       4900       2485     116795
         71       5041       2556     121836
         72       5184       2628     127020
         73       5329       2701     132349
         74       5476       2775     137825
         75       5625       2850     143450
         76       5776       2926     149226
         77       5929       3003     155155
         78       6084       3081     161239
         79       6241       3160     167480
         80       6400       3240     173880
         81       6561       3321     180441
         82       6724       3403     187165
         83       6889       3486     194054
         84       7056       3570     201110
         85       7225       3655     208335
         86       7396       3741     215731
         87       7569       3828     223300
         88       7744       3916     231044
         89       7921       4005     238965
         90       8100       4095     247065
         91       8281       4186     255346
         92       8464       4278     263810
         93       8649       4371     272459
         94       8836       4465     281295
         95       9025       4560     290320
         96       9216       4656     299536
         97       9409       4753     308945
         98       9604       4851     318549
         99       9801       4950     328350
        100      10000       5050     338350
        101      10201       5151     348551
        102      10404       5253     358955
        103      10609       5356     369564
        104      10816       5460     380380
        105      11025       5565     391405
        106      11236       5671     402641
        107      11449       5778     414090
        108      11664       5886     425754
        109      11881       5995     437635
        110      12100       6105     449735
        111      12321       6216     462056
        112      12544       6328     474600
        113      12769       6441     487369
        114      12996       6555     500365
        115      13225       6670     513590
        116      13456       6786     527046
        117      13689       6903     540735
        118      13924       7021     554659
        119      14161       7140     568820
        120      14400       7260     583220
        121      14641       7381     597861
        122      14884       7503     612745
        123      15129       7626     627874
        124      15376       7750     643250
        125      15625       7875     658875
        126      15876       8001     674751
        127      16129       8128     690880
        128      16384       8256     707264
        129      16641       8385     723905
        130      16900       8515     740805
        131      17161       8646     757966
        132      17424       8778     775390
        133      17689       8911     793079
        134      17956       9045     811035
        135      18225       9180     829260
        136      18496       9316     847756
        137      18769       9453     866525
        138      19044       9591     885569
        139      19321       9730     904890
        140      19600       9870     924490
        141      19881      10011     944371
        142      20164      10153     964535
        143      20449      10296     984984
        144      20736      10440    1005720
        145      21025      10585    1026745
        146      21316      10731    1048061
        147      21609      10878    1069670
        148      21904      11026    1091574
        149      22201      11175    1113775
        150      22500      11325    1136275
        151      22801      11476    1159076
        152      23104      11628    1182180
        153      23409      11781    1205589
        154      23716      11935    1229305
        155      24025      12090    1253330
        156      24336      12246    1277666
        157      24649      12403    1302315
        158      24964      12561    1327279
        159      25281      12720    1352560
        160      25600      12880    1378160
        161      25921      13041    1404081
        162      26244      13203    1430325
        163      26569      13366    1456894
        164      26896      13530    1483790
        165      27225      13695    1511015
        166      27556      13861    1538571
        167      27889      14028    1566460
        168      28224      14196    1594684
        169      28561      14365    1623245
        170      28900      14535    1652145
        171      29241      14706    1681386
        172      29584      14878    1710970
        173      29929      15051    1740899
        174      30276      15225    1771175
        175      30625      15400    1801800
        176      30976      15576    1832776
        177      31329      15753    1864105
        178      31684      15931    1895789
        179      32041      16110    1927830
        180      32400      16290    1960230
        181      32761      16471    1992991
        182      33124      16653    2026115
        183      33489      16836    2059604
        184      33856      17020    2093460
        185      34225      17205    2127685
        186      34596      17391    2162281
        187      34969      17578    2197250
        188      35344      17766    2232594
        189      35721      17955    2268315
        190      36100      18145    2304415
        191      36481      18336    2340896
        192      36864      18528    2377760
        193      37249      18721    2415009
        194      37636      18915    2452645
        195      38025      19110    2490670
        196      38416      19306    2529086
        197      38809      19503    2567895
        198      39204      19701    2607099
        199      39601      19900    2646700
        200      40000      20100    2686700
        201      40401      20301    2727101
        202      40804      20503    2767905
        203      41209      20706    2809114
        204      41616      20910    2850730
        205      42025      21115    2892755
        206      42436      21321    2935191
        207      42849      21528    2978040
        208      43264      21736    3021304
        209      43681      21945    3064985
        210      44100      22155    3109085
        211      44521      22366    3153606
        212      44944      22578    3198550
        213      45369      22791    3243919
        214      45796      23005    3289715
        215      46225      23220    3335940
        216      46656      23436    3382596
        217      47089      23653    3429685
        218      47524      23871    3477209
        219      47961      24090    3525170
        220      48400      24310    3573570
        221      48841      24531    3622411
        222      49284      24753    3671695
        223      49729      24976    3721424
        224      50176      25200    3771600
        225      50625      25425    3822225
        226      51076      25651    3873301
        227      51529      25878    3924830
        228      51984      26106    3976814
        229      52441      26335    4029255
        230      52900      26565    4082155
        231      53361      26796    4135516
        232      53824      27028    4189340
        233      54289      27261    4243629
        234      54756      27495    4298385
        235      55225      27730    4353610
        236      55696      27966    4409306
        237      56169      28203    4465475
        238      56644      28441    4522119
        239      57121      28680    4579240
        240      57600      28920    4636840
        241      58081      29161    4694921
        242      58564      29403    4753485
        243      59049      29646    4812534
        244      59536      29890    4872070
        245      60025      30135    4932095
        246      60516      30381    4992611
        247      61009      30628    5053620
        248      61504      30876    5115124
        249      62001      31125    5177125
        250      62500      31375    5239625
        251      63001      31626    5302626
        252      63504      31878    5366130
        253      64009      32131    5430139
        254      64516      32385    5494655
        255      65025      32640    5559680
        256      65536      32896    5625216
        257      66049      33153    5691265
        258      66564      33411    5757829
        259      67081      33670    5824910
        260      67600      33930    5892510
        261      68121      34191    5960631
        262      68644      34453    6029275
        263      69169      34716    6098444
        264      69696      34980    6168140
        265      70225      35245    6238365
        266      70756      35511    6309121
        267      71289      35778    6380410
        268      71824      36046    6452234
        269      72361      36315    6524595
        270      72900      36585    6597495
        271      73441      36856    6670936
        272      73984      37128    6744920
        273      74529      37401    6819449
        274      75076      37675    6894525
        275      75625      37950    6970150
        276      76176      38226    7046326
        277      76729      38503    7123055
        278      77284      38781    7200339
        279      77841      39060    7278180
        280      78400      39340    7356580
        281      78961      39621    7435541
        282      79524      39903    7515065
        283      80089      40186    7595154
        284      80656      40470    7675810
        285      81225      40755    7757035
        286      81796      41041    7838831
        287      82369      41328    7921200
        288      82944      41616    8004144
        289      83521      41905    8087665
        290      84100      42195    8171765
        291      84681      42486    8256446
        292      85264      42778    8341710
        293      85849      43071    8427559
        294      86436      43365    8513995
        295      87025      43660    8601020
        296      87616      43956    8688636
        297      88209      44253    8776845
        298      88804      44551    8865649
        299      89401      44850    8955050
        300      90000      45150    9045050
        301      90601      45451    9135651
        302      91204      45753    9226855
        303      91809      46056    9318664
        304      92416      46360    9411080
        305      93025      46665    9504105
        306      93636      46971    9597741
        307      94249      47278    9691990
        308      94864      47586    9786854
        309      95481      47895    9882335
        310      96100      48205    9978435
        311      96721      48516   10075156
        312      97344      48828   10172500
        313      97969      49141   10270469
        314      98596      49455   10369065
        315      99225      49770   10468290
        316      99856      50086   10568146
        317     100489      50403   10668635
        318     101124      50721   10769759
        319     101761      51040   10871520
        320     102400      51360   10973920
        321     103041      51681   11076961
        322     103684      52003   11180645
        323     104329      52326   11284974
        324     104976      52650   11389950
        325     105625      52975   11495575
        326     106276      53301   11601851
        327     106929      53628   11708780
        328     107584      53956   11816364
        329     108241      54285   11924605
        330     108900      54615   12033505
        331     109561      54946   12143066
        332     110224      55278   12253290
        333     110889      55611   12364179
        334     111556      55945   12475735
        335     112225      56280   12587960
        336     112896      56616   12700856
        337     113569      56953   12814425
        338     114244      57291   12928669
        339     114921      57630   13043590
        340     115600      57970   13159190
        341     116281      58311   13275471
        342     116964      58653   13392435
        343     117649      58996   13510084
        344     118336      59340   13628420
        345     119025      59685   13747445
        346     119716      60031   13867161
        347     120409      60378   13987570
        348     121104      60726   14108674
        349     121801      61075   14230475
        350     122500      61425   14352975
        351     123201      61776   14476176
        352     123904      62128   14600080
        353     124609      62481   14724689
        354     125316      62835   14850005
        355     126025      63190   14976030
        356     126736      63546   15102766
        357     127449      63903   15230215
        358     128164      64261   15358379
        359     128881      64620   15487260
        360     129600      64980   15616860
        361     130321      65341   15747181
        362     131044      65703   15878225
        363     131769      66066   16009994
        364     132496      66430   16142490
        365     133225      66795   16275715
        366     133956      67161   16409671
        367     134689      67528   16544360
        368     135424      67896   16679784
        369     136161      68265   16815945
        370     136900      68635   16952845
        371     137641      69006   17090486
        372     138384      69378   17228870
        373     139129      69751   17367999
        374     139876      70125   17507875
        375     140625      70500   17648500
        376     141376      70876   17789876
        377     142129      71253   17932005
        378     142884      71631   18074889
        379     143641      72010   18218530
        380     144400      72390   18362930
        381     145161      72771   18508091
        382     145924      73153   18654015
        383     146689      73536   18800704
        384     147456      73920   18948160
        385     148225      74305   19096385
        386     148996      74691   19245381
        387     149769      75078   19395150
        388     150544      75466   19545694
        389     151321      75855   19697015
        390     152100      76245   19849115
        391     152881      76636   20001996
        392     153664      77028   20155660
        393     154449      77421   20310109
        394     155236      77815   20465345
        395     156025      78210   20621370
        396     156816      78606   20778186
        397     157609      79003   20935795
        398     158404      79401   21094199
        399     159201      79800   21253400
        400     160000      80200   21413400
        401     160801      80601   21574201
        402     161604      81003   21735805
        403     162409      81406   21898214
        404     163216      81810   22061430
        405     164025      82215   22225455
        406     164836      82621   22390291
        407     165649      83028   22555940
        408     166464      83436   22722404
        409     167281      83845   22889685
        410     168100      84255   23057785
        411     168921      84666   23226706
        412     169744      85078   23396450
        413     170569      85491   23567019
        414     171396      85905   23738415
        415     172225      86320   23910640
        416     173056      86736   24083696
        417     173889      87153   24257585
        418     174724      87571   24432309
        419     175561      87990   24607870
        420     176400      88410   24784270
        421     177241      88831   24961511
        422     178084      89253   25139595
        423     178929      89676   25318524
        424     179776      90100   25498300
        425     180625      90525   25678925
        426     181476      90951   25860401
        427     182329      91378   26042730
        428     183184      91806   26225914
        429     184041      92235   26409955
        430     184900      92665   26594855
        431     185761      93096   26780616
        432     186624      93528   26967240
        433     187489      93961   27154729
        434     188356      94395   27343085
        435     189225      94830   27532310
        436     190096      95266   27722406
        437     190969      95703   27913375
        438     191844      96141   28105219
        439     192721      96580   28297940
        440     193600      97020   28491540
        441     194481      97461   28686021
        442     195364      97903   28881385
        443     196249      98346   29077634
        444     197136      98790   29274770
        445     198025      99235   29472795
        446     198916      99681   29671711
        447     199809     100128   29871520
        448     200704     100576   30072224
        449     201601     101025   30273825
        450     202500     101475   30476325
        451     203401     101926   30679726
        452     204304     102378   30884030
        453     205209     102831   31089239
        454     206116     103285   31295355
        455     207025     103740   31502380
        456     207936     104196   31710316
        457     208849     104653   31919165
        458     209764     105111   32128929
        459     210681     105570   32339610
        460     211600     106030   32551210
        461     212521     106491   32763731
        462     213444     106953   32977175
        463     214369     107416   33191544
        464     215296     107880   33406840
        465     216225     108345   33623065
        466     217156     108811   33840221
        467     218089     109278   34058310
        468     219024     109746   34277334
        469     219961     110215   34497295
        470     220900     110685   34718195
        471     221841     111156   34940036
        472     222784     111628   35162820
        473     223729     112101   35386549
        474     224676     112575   35611225
        475     225625     113050   35836850
        476     226576     113526   36063426
        477     227529     114003   36290955
        478     228484     114481   36519439
        479     229441     114960   36748880
        480     230400     115440   36979280
        481     231361     115921   37210641
        482     232324     116403   37442965
        483     233289     116886   37676254
        484     234256     117370   37910510
        485     235225     117855   38145735
        486     236196     118341   38381931
        487     237169     118828   38619100
        488     238144     119316   38857244
        489     239121     119805   39096365
        490     240100     120295   39336465
        491     241081     120786   39577546
        492     242064     121278   39819610
        493     243049     121771   40062659
        494     244036     122265   40306695
        495     245025     122760   40551720
        496     246016     123256   40797736
        497     247009     123753   41044745
        498     248004     124251   41292749
        499     249001     124750   41541750
        500     250000     125250   41791750
        501     251001     125751   42042751
        502     252004     126253   42294755
        503     253009     126756   42547764
        504     254016     127260   42801780
        505     255025     127765   43056805
        506     256036     128271   43312841
        507     257049     128778   43569890
        508     258064     129286   43827954
        509     259081     129795   44087035
        510     260100     130305   44347135
        511     261121     130816   44608256
        512     262144     131328   44870400
        513     263169     131841   45133569
        514     264196     132355   45397765
        515     265225     132870   45662990
        516     266256     133386   45929246
        517     267289     133903   46196535
        518     268324     134421   46464859
        519     269361     134940   46734220
        520     270400     135460   47004620
        521     271441     135981   47276061
        522     272484     136503   47548545
        523     273529     137026   47822074
        524     274576     137550   48096650
        525     275625     138075   48372275
        526     276676     138601   48648951
        527     277729     139128   48926680
        528     278784     139656   49205464
        529     279841     140185   49485305
        530     280900     140715   49766205
        531     281961     141246   50048166
        532     283024     141778   50331190
        533     284089     142311   50615279
        534     285156     142845   50900435
        535     286225     143380   51186660
        536     287296     143916   51473956
        537     288369     144453   51762325
        538     289444     144991   52051769
        539     290521     145530   52342290
        540     291600     146070   52633890
        541     292681     146611   52926571
        542     293764     147153   53220335
        543     294849     147696   53515184
        544     295936     148240   53811120
        545     297025     148785   54108145
        546     298116     149331   54406261
        547     299209     149878   54705470
        548     300304     150426   55005774
        549     301401     150975   55307175
        550     302500     151525   55609675
        551     303601     152076   55913276
        552     304704     152628   56217980
        553     305809     153181   56523789
        554     306916     153735   56830705
        555     308025     154290   57138730
        556     309136     154846   57447866
        557     310249     155403   57758115
        558     311364     155961   58069479
        559     312481     156520   58381960
        560     313600     157080   58695560
        561     314721     157641   59010281
        562     315844     158203   59326125
        563     316969     158766   59643094
        564     318096     159330   59961190
        565     319225     159895   60280415
        566     320356     160461   60600771
        567     321489     161028   60922260
        568     322624     161596   61244884
        569     323761     162165   61568645
        570     324900     162735   61893545
        571     326041     163306   62219586
        572     327184     163878   62546770
        573     328329     164451   62875099
        574     329476     165025   63204575
        575     330625     165600   63535200
        576     331776     166176   63866976
        577     332929     166753   64199905
        578     334084     167331   64533989
        579     335241     167910   64869230
        580     336400     168490   65205630
        581     337561     169071   65543191
        582     338724     169653   65881915
        583     339889     170236   66221804
        584     341056     170820   66562860
        585     342225     171405   66905085
        586     343396     171991   67248481
        587     344569     172578   67593050
        588     345744     173166   67938794
        589     346921     173755   68285715
        590     348100     174345   68633815
        591     349281     174936   68983096
        592     350464     175528   69333560
        593     351649     176121   69685209
        594     352836     176715   70038045
        595     354025     177310   70392070
        596     355216     177906   70747286
        597     356409     178503   71103695
        598     357604     179101   71461299
        599     358801     179700   71820100
        600     360000     180300   72180100
        601     361201     180901   72541301
        602     362404     181503   72903705
        603     363609     182106   73267314
        604     364816     182710   73632130
        605     366025     183315   73998155
        606     367236     183921   74365391
        607     368449     184528   74733840
        608     369664     185136   75103504
        609     370881     185745   75474385
        610     372100     186355   75846485
        611     373321     186966   76219806
        612     374544     187578   76594350
        613     375769     188191   76970119
        614     376996     188805   77347115
        615     378225     189420   77725340
        616     379456     190036   78104796
        617     380689     190653   78485485
        618     381924     191271   78867409
        619     383161     191890   79250570
        620     384400     192510   79634970
        621     385641     193131   80020611
        622     386884     193753   80407495
        623     388129     194376   80795624
        624     389376     195000   81185000
        625     390625     195625   81575625
        626     391876     196251   81967501
        627     393129     196878   82360630
        628     394384     197506   82755014
        629     395641     198135   83150655
        630     396900     198765   83547555
        631     398161     199396   83945716
        632     399424     200028   84345140
        633     400689     200661   84745829
        634     401956     201295   85147785
        635     403225     201930   85551010
        636     404496     202566   85955506
        637     405769     203203   86361275
        638     407044     203841   86768319
        639     408321     204480   87176640
        640     409600     205120   87586240
        641     410881     205761   87997121
        642     412164     206403   88409285
        643     413449     207046   88822734
        644     414736     207690   89237470
        645     416025     208335   89653495
        646     417316     208981   90070811
        647     418609     209628   90489420
        648     419904     210276   90909324
        649     421201     210925   91330525
        650     422500     211575   91753025
        651     423801     212226   92176826
        652     425104     212878   92601930
        653     426409     213531   93028339
        654     427716     214185   93456055
        655     429025     214840   93885080
        656     430336     215496   94315416
        657     431649     216153   94747065
        658     432964     216811   95180029
        659     434281     217470   95614310
        660     435600     218130   96049910
        661     436921     218791   96486831
        662     438244     219453   96925075
        663     439569     220116   97364644
        664     440896     220780   97805540
        665     442225     221445   98247765
        666     443556     222111   98691321
        667     444889     222778   99136210
        668     446224     223446   99582434
        669     447561     224115  100029995
        670     448900     224785  100478895
        671     450241     225456  100929136
        672     451584     226128  101380720
        673     452929     226801  101833649
        674     454276     227475  102287925
        675     455625     228150  102743550
        676     456976     228826  103200526
        677     458329     229503  103658855
        678     459684     230181  104118539
        679     461041     230860  104579580
        680     462400     231540  105041980
        681     463761     232221  105505741
        682     465124     232903  105970865
        683     466489     233586  106437354
        684     467856     234270  106905210
        685     469225     234955  107374435
        686     470596     235641  107845031
        687     471969     236328  108317000
        688     473344     237016  108790344
        689     474721     237705  109265065
        690     476100     238395  109741165
        691     477481     239086  110218646
        692     478864     239778  110697510
        693     480249     240471  111177759
        694     481636     241165  111659395
        695     483025     241860  112142420
        696     484416     242556  112626836
        697     485809     243253  113112645
        698     487204     243951  113599849
        699     488601     244650  114088450
        700     490000     245350  114578450
        701     491401     246051  115069851
        702     492804     246753  115562655
        703     494209     247456  116056864
        704     495616     248160  116552480
        705     497025     248865  117049505
        706     498436     249571  117547941
        707     499849     250278  118047790
        708     501264     250986  118549054
        709     502681     251695  119051735
        710     504100     252405  119555835
        711     505521     253116  120061356
        712     506944     253828  120568300
        713     508369     254541  121076669
        714     509796     255255  121586465
        715     511225     255970  122097690
        716     512656     256686  122610346
        717     514089     257403  123124435
        718     515524     258121  123639959
        719     516961     258840  124156920
        720     518400     259560  124675320
        721     519841     260281  125195161
        722     521284     261003  125716445
        723     522729     261726  126239174
        724     524176     262450  126763350
        725     525625     263175  127288975
        726     527076     263901  127816051
        727     528529     264628  128344580
        728     529984     265356  128874564
        729     531441     266085  129406005
        730     532900     266815  129938905
        731     534361     267546  130473266
        732     535824     268278  131009090
        733     537289     269011  131546379
        734     538756     269745  132085135
        735     540225     270480  132625360
        736     541696     271216  133167056
        737     543169     271953  133710225
        738     544644     272691  134254869
        739     546121     273430  134800990
        740     547600     274170  135348590
        741     549081     274911  135897671
        742     550564     275653  136448235
        743     552049     276396  137000284
        744     553536     277140  137553820
        745     555025     277885  138108845
        746     556516     278631  138665361
        747     558009     279378  139223370
        748     559504     280126  139782874
        749     561001     280875  140343875
        750     562500     281625  140906375
        751     564001     282376  141470376
        752     565504     283128  142035880
        753     567009     283881  142602889
        754     568516     284635  143171405
        755     570025     285390  143741430
        756     571536     286146  144312966
        757     573049     286903  144886015
        758     574564     287661  145460579
        759     576081     288420  146036660
        760     577600     289180  146614260
        761     579121     289941  147193381
        762     580644     290703  147774025
        763     582169     291466  148356194
        764     583696     292230  148939890
        765     585225     292995  149525115
        766     586756     293761  150111871
        767     588289     294528  150700160
        768     589824     295296  151289984
        769     591361     296065  151881345
        770     592900     296835  152474245
        771     594441     297606  153068686
        772     595984     298378  153664670
        773     597529     299151  154262199
        774     599076     299925  154861275
        775     600625     300700  155461900
        776     602176     301476  156064076
        777     603729     302253  156667805
        778     605284     303031  157273089
        779     606841     303810  157879930
        780     608400     304590  158488330
        781     609961     305371  159098291
        782     611524     306153  159709815
        783     613089     306936  160322904
        784     614656     307720  160937560
        785     616225     308505  161553785
        786     617796     309291  162171581
        787     619369     310078  162790950
        788     620944     310866  163411894
        789     622521     311655  164034415
        790     624100     312445  164658515
        791     625681     313236  165284196
        792     627264     314028  165911460
        793     628849     314821  166540309
        794     630436     315615  167170745
        795     632025     316410  167802770
        796     633616     317206  168436386
        797     635209     318003  169071595
        798     636804     318801  169708399
        799     638401     319600  170346800
        800     640000     320400  170986800
        801     641601     321201  171628401
        802     643204     322003  172271605
        803     644809     322806  172916414
        804     646416     323610  173562830
        805     648025     324415  174210855
        806     649636     325221  174860491
        807     651249     326028  175511740
        808     652864     326836  176164604
        809     654481     327645  176819085
        810     656100     328455  177475185
        811     657721     329266  178132906
        812     659344     330078  178792250
        813     660969     330891  179453219
        814     662596     331705  180115815
        815     664225     332520  180780040
        816     665856     333336  181445896
        817     667489     334153  182113385
        818     669124     334971  182782509
        819     670761     335790  183453270
        820     672400     336610  184125670
        821     674041     337431  184799711
        822     675684     338253  185475395
        823     677329     339076  186152724
        824     678976     339900  186831700
        825     680625     340725  187512325
        826     682276     341551  188194601
        827     683929     342378  188878530
        828     685584     343206  189564114
        829     687241     344035  190251355
        830     688900     344865  190940255
        831     690561     345696  191630816
        832     692224     346528  192323040
        833     693889     347361  193016929
        834     695556     348195  193712485
        835     697225     349030  194409710
        836     698896     349866  195108606
        837     700569     350703  195809175
        838     702244     351541  196511419
        839     703921     352380  197215340
        840     705600     353220  197920940
        841     707281     354061  198628221
        842     708964     354903  199337185
        843     710649     355746  200047834
        844     712336     356590  200760170
        845     714025     357435  201474195
        846     715716     358281  202189911
        847     717409     359128  202907320
        848     719104     359976  203626424
        849     720801     360825  204347225
        850     722500     361675  205069725
        851     724201     362526  205793926
        852     725904     363378  206519830
        853     727609     364231  207247439
        854     729316     365085  207976755
        855     731025     365940  208707780
        856     732736     366796  209440516
        857     734449     367653  210174965
        858     736164     368511  210911129
        859     737881     369370  211649010
        860     739600     370230  212388610
        861     741321     371091  213129931
        862     743044     371953  213872975
        863     744769     372816  214617744
        864     746496     373680  215364240
        865     748225     374545  216112465
        866     749956     375411  216862421
        867     751689     376278  217614110
        868     753424     377146  218367534
        869     755161     378015  219122695
        870     756900     378885  219879595
        871     758641     379756  220638236
        872     760384     380628  221398620
        873     762129     381501  222160749
        874     763876     382375  222924625
        875     765625     383250  223690250
        876     767376     384126  224457626
        877     769129     385003  225226755
        878     770884     385881  225997639
        879     772641     386760  226770280
        880     774400     387640  227544680
        881     776161     388521  228320841
        882     777924     389403  229098765
        883     779689     390286  229878454
        884     781456     391170  230659910
        885     783225     392055  231443135
        886     784996     392941  232228131
        887     786769     393828  233014900
        888     788544     394716  233803444
        889     790321     395605  234593765
        890     792100     396495  235385865
        891     793881     397386  236179746
        892     795664     398278  236975410
        893     797449     399171  237772859
        894     799236     400065  238572095
        895     801025     400960  239373120
        896     802816     401856  240175936
        897     804609     402753  240980545
        898     806404     403651  241786949
        899     808201     404550  242595150
        900     810000     405450  243405150
        901     811801     406351  244216951
        902     813604     407253  245030555
        903     815409     408156  245845964
        904     817216     409060  246663180
        905     819025     409965  247482205
        906     820836     410871  248303041
        907     822649     411778  249125690
        908     824464     412686  249950154
        909     826281     413595  250776435
        910     828100     414505  251604535
        911     829921     415416  252434456
        912     831744     416328  253266200
        913     833569     417241  254099769
        914     835396     418155  254935165
        915     837225     419070  255772390
        916     839056     419986  256611446
        917     840889     420903  257452335
        918     842724     421821  258295059
        919     844561     422740  259139620
        920     846400     423660  259986020
        921     848241     424581  260834261
        922     850084     425503  261684345
        923     851929     426426  262536274
        924     853776     427350  263390050
        925     855625     428275  264245675
        926     857476     429201  265103151
        927     859329     430128  265962480
        928     861184     431056  266823664
        929     863041     431985  267686705
        930     864900     432915  268551605
        931     866761     433846  269418366
        932     868624     434778  270286990
        933     870489     435711  271157479
        934     872356     436645  272029835
        935     874225     437580  272904060
        936     876096     438516  273780156
        937     877969     439453  274658125
        938     879844     440391  275537969
        939     881721     441330  276419690
        940     883600     442270  277303290
        941     885481     443211  278188771
        942     887364     444153  279076135
        943     889249     445096  279965384
        944     891136     446040  280856520
        945     893025     446985  281749545
        946     894916     447931  282644461
        947     896809     448878  283541270
        948     898704     449826  284439974
        949     900601     450775  285340575
        950     902500     451725  286243075
        951     904401     452676  287147476
        952     906304     453628  288053780
        953     908209     454581  288961989
        954     910116     455535  289872105
        955     912025     456490  290784130
        956     913936     457446  291698066
        957     915849     458403  292613915
        958     917764     459361  293531679
        959     919681     460320  294451360
        960     921600     461280  295372960
        961     923521     462241  296296481
        962     925444     463203  297221925
        963     927369     464166  298149294
        964     929296     465130  299078590
        965     931225     466095  300009815
        966     933156     467061  300942971
        967     935089     468028  301878060
        968     937024     468996  302815084
        969     938961     469965  303754045
        970     940900     470935  304694945
        971     942841     471906  305637786
        972     944784     472878  306582570
        973     946729     473851  307529299
        974     948676     474825  308477975
        975     950625     475800  309428600
        976     952576     476776  310381176
        977     954529     477753  311335705
        978     956484     478731  312292189
        979     958441     479710  313250630
        980     960400     480690  314211030
        981     962361     481671  315173391
        982     964324     482653  316137715
        983     966289     483636  317104004
        984     968256     484620  318072260
        985     970225     485605  319042485
        986     972196     486591  320014681
        987     974169     487578  320988850
        988     976144     488566  321964994
        989     978121     489555  322943115
        990     980100     490545  323923215
        991     982081     491536  324905296
        992     984064     492528  325889360
        993     986049     493521  326875409
        994     988036     494515  327863445
        995     990025     495510  328853470
        996     992016     496506  329845486
        997     994009     497503  330839495
        998     996004     498501  331835499
        999     998001     499500  332833500
       1000    1000000     500500  333833500
